Name,Salary,Opponent,GameInfo,teamAbbrev,WR1,WR2,WR3,WBD
Gegard Mousasi,11300,Uriah Hall,Hall@Mousasi 08:00PM ET,Mousasi,350,575,1025,101
Kyoji Horiguchi,11000,Chico Camus,Camus@Horiguchi 08:00PM ET,Horiguchi,475,675,1175,-112
Nick Hein,10900,Yusuke Kasuya,Hein@Kasuya 08:00PM ET,Hein,450,650,1200,101
Josh Barnett,10800,Roy Nelson,Barnett@Nelson 08:00PM ET,Barnett,275,475,900,303
Kajan Johnson,10700,Naoyuki Kotani,Johnson@Kotani 08:00PM ET,Johnson,275,450,2025,219
Diego Brandao,10600,Katsunori Kikuno,Brandao@Kikuno 08:00PM ET,Brandao,200,450,850,-119
Takeya Mizugaki,10500,George Roop,Mizugaki@Roop 08:00PM ET,Mizugaki,550,750,1350,104
Mizuto Hirota,10400,Teruto Ishihara,Hirota@Ishihara 08:00PM ET,Hirota,450,675,1200,114
Jingliang Li,10300,Keita Nakamura,Li@Nakamura 08:00PM ET,Li,475,675,1200,114
Shinsho Anzai,9700,Roger Zapata,Anzai@Zapata 08:00PM ET,Anzai,475,675,1200,294
Roger Zapata,9700,Shinsho Anzai,Anzai@Zapata 08:00PM ET,Zapata,475,675,1300,283
Keita Nakamura,9100,Jingliang Li,Li@Nakamura 08:00PM ET,Nakamura,975,1300,2300,430
Teruto Ishihara,9000,Mizuto Hirota,Hirota@Ishihara 08:00PM ET,Ishihara,975,1275,2400,450
George Roop,8900,Takeya Mizugaki,Mizugaki@Roop 08:00PM ET,Roop,825,1025,1825,460
Katsunori Kikuno,8800,Diego Brandao,Brandao@Kikuno 08:00PM ET,Kikuno,650,825,1500,570
Naoyuki Kotani,8700,Kajan Johnson,Johnson@Kotani 08:00PM ET,Kotani,925,1250,2025,520
Roy Nelson,8600,Josh Barnett,Barnett@Nelson 08:00PM ET,Nelson,725,1025,1525,1115
Yusuke Kasuya,8500,Nick Hein,Hein@Kasuya 08:00PM ET,Kasuya,825,1025,1875,713
Chico Camus,8400,Kyoji Horiguchi,Camus@Horiguchi 08:00PM ET,Camus,1600,1900,3050,425
Uriah Hall,8100,Gegard Mousasi,Hall@Mousasi 08:00PM ET,Hall,1300,1600,2700,715
