Rank,Name,Win,Salary
1,Rickie Fowler,0.0,9100
9,Matt Kuchar,0.0,7600
18,Jimmy Walker,0.0,6800
50,Justin Rose,0.0,9800
105,Bill Haas,0.0,7200
128,Zach Johnson,0.0,7800
164,Hideki Matsuyama,0.0,8900
168,Chris Kirk,0.0,6700
169,Brooks Koepka,0.0,7500
