Rank,Name,Win,Salary
44,Rickie Fowler,0.0,9100
44,Zach Johnson,0.0,7800
50,Hideki Matsuyama,0.0,8900
53,Bill Haas,0.0,7200
77,Matt Kuchar,0.0,7600
150,Brooks Koepka,0.0,7500
152,Justin Rose,0.0,9800
161,Jimmy Walker,0.0,6800
193,Chris Kirk,0.0,6700
